2019-06-05 09:28:58,460 - login.py - [line:72] - ERROR - Expecting value: line 1 column 1 (char 0)
2019-06-05 09:28:58,752 - shanyongbao_test.py - [line:27] - ERROR - 系统异常{'code': 40353, 'msg': '请重新登录'}
2019-06-05 09:47:12,455 - login.py - [line:72] - ERROR - Expecting value: line 1 column 1 (char 0)
2019-06-05 09:48:04,129 - login.py - [line:72] - ERROR - Expecting value: line 1 column 1 (char 0)
2019-06-05 09:49:57,707 - login.py - [line:74] - ERROR - Expecting value: line 1 column 1 (char 0)
2019-06-05 09:51:56,872 - shanyongbao_test.py - [line:27] - ERROR - 系统异常{'code': 40353, 'msg': '请重新登录'}
2019-06-05 19:27:26,641 - shanyongbao_test.py - [line:31] - ERROR - 40353 != 0
2019-06-05 19:27:26,911 - shoukuanbao_test.py - [line:33] - ERROR - 400 != 0
2019-06-05 21:07:57,953 - shanyongbao_test.py - [line:33] - ERROR - No connection adapters were found for ''https://jr.fangdd.net/jgj/api/factoring/queryLoanSummary'
